Midterm 2 W26
…
polar_bears %>% 
  summarise(across(everything(), ~sum(is.na(.))))

## # A tibble: 1 × 11
##   bear_id capture_date  popn   sex age_class mating denning   lat  long
##     <int>        <int> <int> <int>     <int>  <int>   <int> <int> <int>
## 1       0            0     0     0         0      0       0     0     0
## # ℹ 2 more variables: urea_nitrogen <int>, creatinine <int>

polar_bears

## # A tibble: 519 × 11
##    bear_id capture_date popn  sex   age_class mating denning   lat  long
##      <dbl> <date>       <chr> <chr> <chr>     <chr>  <chr>   <dbl> <dbl>
##  1    6398 1985-04-28   SB    F     A         no     yes      70.4 -148.
##  2    6384 1991-04-13   SB    F     A         no     yes      70.0 -150.
##  3    6520 1992-04-18   SB    F     A         no     yes      70.9 -145.
##  4    6559 2000-04-12   SB    F     A         no     yes      70.0 -142.
##  5   20629 2003-04-16   SB    F     A         no     yes      70.5 -145.
##  6   20876 2007-04-01   SB    F     A         no     yes      71.1 -153.
##  7   20354 2009-04-16   SB    F     A         no     yes      70.7 -145.
##  8   21024 2009-04-25   SB    F     A         no     yes      70.5 -147.
##  9   20764 2009-05-01   SB    F     A         no     yes      70.8 -149.
## 10   21045 2009-05-19   SB    F     A         no     yes      70.7 -148.
## # ℹ 509 more rows
## # ℹ 2 more variables: urea_nitrogen <dbl>, creatinine <dbl>
…
#being asked to make new variables
polar_bear.no.nas <- 
polar_bear.no.nas %>% 
  mutate(fasting = case_when(un_creat_ratio <= 10  ~ "fasting",
            un_creat_ratio >10 ~ "not fasting"))

(6 points) The authors found that the number of fasting bears
increased in the SB population but decreased in the CS population. Make
a plot(s) that shows the number of fasting bears by year for both
populations to visualize this trend.

polar_bear.no.nas

## # A tibble: 519 × 15
##    bear_id year  month day   popn  sex   age_class mating denning   lat  long
##      <dbl> <chr> <chr> <chr> <chr> <chr> <chr>     <chr>  <chr>   <dbl> <dbl>
##  1    6398 1985  04    28    SB    F     A         no     yes      70.4 -148.
##  2    6384 1991  04    13    SB    F     A         no     yes      70.0 -150.
##  3    6520 1992  04    18    SB    F     A         no     yes      70.9 -145.
##  4    6559 2000  04    12    SB    F     A         no     yes      70.0 -142.
##  5   20629 2003  04    16    SB    F     A         no     yes      70.5 -145.
##  6   20876 2007  04    01    SB    F     A         no     yes      71.1 -153.
##  7   20354 2009  04    16    SB    F     A         no     yes      70.7 -145.
##  8   21024 2009  04    25    SB    F     A         no     yes      70.5 -147.
##  9   20764 2009  05    01    SB    F     A         no     yes      70.8 -149.
## 10   21045 2009  05    19    SB    F     A         no     yes      70.7 -148.
## # ℹ 509 more rows
## # ℹ 4 more variables: urea_nitrogen <dbl>, creatinine <dbl>,
## #   un_creat_ratio <dbl>, fasting <chr>
…
