…
5. The variables `common_name` and `taxonomic_code` both refer to species. How many unique species are represented in the data based on each of these variables? Are the numbers the same or different?

``` r
fisheries_clean %>% 
  group_by(common_name, taxonomic_code) %>% 
  distinct() %>% 
  count()
```

```
## # A tibble: 3,722 × 3
## # Groups:   common_name, taxonomic_code [3,722]
##    common_name             taxonomic_code      n
##    <fct>                   <fct>           <int>
##  1 Freshwater fishes NEI   1990XXXXXXXX106 14765
##  2 Crucian carp            140014109002     1107
##  3 Common carp             140014113401     2655
##  4 Grass carp(=White amur) 140018102601      774
##  5 Silver carp             140018104601      742
##  6 Bighead carp            140018104602      434
##  7 Wuchang bream           140018105801       35
##  8 Bleak                   140023102602      398
##  9 Orfe(=Ide)              140023114204      613
## 10 Common dace             140023114205      125
## # ℹ 3,712 more rows
```
…
